{
  "images" : [
    {
      "idiom" : "universal",
      "filename" : "currency-dollar.png",
      "scale" : "1x"
    },
    {
      "idiom" : "universal",
      "filename" : "currency-dollar@2x.png",
      "scale" : "2x"
    },
    {
      "idiom" : "universal",
      "filename" : "currency-dollar@3x.png",
      "scale" : "3x"
    }
  ],
  "info" : {
    "version" : 1,
    "author" : "xcode"
  }
}